<svg xmlns="http://www.w3.org/2000/svg" width="18" height="21" viewBox="0 0 18 21">
  <path fill="#FFF" d="M7,19 C7,20.1055276 7.89447236,21 9,21 C10.1055276,21 11,20.1055276 11,19 L7,19 Z M15.88,14.82 L18,16.94 L18,18 L0,18 L0,16.94 L2.12,14.82 L2.12,9 C2.12,5.75 4.37,3.03 7.41,2.31 L7.41,1.59 C7.41,0.71 8.12,0 9,0 C9.88,0 10.59,0.71 10.59,1.59 L10.59,2.31 C13.63,3.03 15.88,5.75 15.88,9 L15.88,14.82 Z M9.49121094,14 L9.49121094,6.86132812 L8.80761719,6.86132812 L6.91796875,8.32128906 L7.34765625,8.87792969 C8.03776387,8.31803105 8.42512979,8.00065142 8.50976562,7.92578125 C8.59440146,7.85091108 8.6708981,7.77929722 8.73925781,7.7109375 C8.71321602,8.08854355 8.70019531,8.48893018 8.70019531,8.91210938 L8.70019531,14 L9.49121094,14 Z"/>
</svg>
